module github.com/energicryptocurrency/go-energi

go 1.21

toolchain go1.21.0

require (
	github.com/Azure/azure-storage-blob-go v0.7.0
	github.com/allegro/bigcache v1.2.1
	github.com/aristanetworks/goarista v0.0.0-20220225123240-453059d26fcd
	github.com/btcsuite/btcd v0.22.0-beta
	github.com/cespare/cp v1.1.1
	github.com/davecgh/go-spew v1.1.1
	github.com/deckarep/golang-set v1.7.1
	github.com/docker/docker v20.10.12+incompatible
	github.com/edsrzf/mmap-go v1.1.0
	github.com/elastic/gosigar v0.14.2
	github.com/fatih/color v1.13.0
	github.com/fjl/memsize v0.0.1
	github.com/go-stack/stack v1.8.1
	github.com/golang/protobuf v1.5.2
	github.com/golang/snappy v0.0.4
	github.com/hashicorp/golang-lru v0.5.4
	github.com/hashtobewild/go-duktape v0.0.0-20211216124909-0c6c21e6d18b
	github.com/huin/goupnp v1.0.2
	github.com/influxdata/influxdb v1.9.6
	github.com/jackpal/go-nat-pmp v1.0.2
	github.com/julienschmidt/httprouter v1.3.0
	github.com/karalabe/usb v0.0.2
	github.com/mattn/go-colorable v0.1.12
	github.com/mattn/go-isatty v0.0.14
	github.com/mohae/deepcopy v0.0.0-20170929034955-c48cc78d4826
	github.com/naoina/toml v0.1.1
	github.com/olekukonko/tablewriter v0.0.5
	github.com/pborman/uuid v1.2.1
	github.com/peterh/liner v1.2.2
	github.com/prometheus/tsdb v0.10.0
	github.com/rjeczalik/notify v0.9.2
	github.com/robertkrimen/otto v0.0.0-20211024170158-b87d35c0b86f
	github.com/rs/cors v1.8.2
	github.com/shengdoushi/base58 v1.0.0
	github.com/stretchr/testify v1.7.0
	github.com/syndtr/goleveldb v1.0.0
	golang.org/x/crypto v0.0.0-20220214200702-86341886e292
	golang.org/x/net v0.0.0-20220225172249-27dd8689420f
	golang.org/x/sync v0.0.0-20210220032951-036812b2e83c
	golang.org/x/sys v0.0.0-20220227234510-4e6760a101f9
	golang.org/x/term v0.0.0-20210927222741-03fcf44c2211
	gopkg.in/check.v1 v1.0.0-20201130134442-10cb98267c6c
	gopkg.in/natefinch/npipe.v2 v2.0.0-20160621034901-c1b8fa8bdcce
	gopkg.in/urfave/cli.v1 v1.20.0
)

require (
	github.com/Azure/azure-pipeline-go v0.2.1 // indirect
	github.com/andreyvit/diff v0.0.0-20170406064948-c7f18ee00883 // indirect
	github.com/apache/arrow/go/arrow v0.0.0-20210722123801-4591d76fce28 // indirect
	github.com/benbjohnson/immutable v0.3.0 // indirect
	github.com/beorn7/perks v1.0.1 // indirect
	github.com/cespare/xxhash v1.1.0 // indirect
	github.com/cespare/xxhash/v2 v2.1.2 // indirect
	github.com/gofrs/uuid v3.3.0+incompatible // indirect
	github.com/gogo/protobuf v1.3.2 // indirect
	github.com/google/flatbuffers v2.0.0+incompatible // indirect
	github.com/google/go-cmp v0.5.6 // indirect
	github.com/google/uuid v1.1.2 // indirect
	github.com/influxdata/flux v0.140.0 // indirect
	github.com/influxdata/influxql v1.1.1-0.20211004132434-7e7d61973256 // indirect
	github.com/kr/pretty v0.2.1 // indirect
	github.com/kr/text v0.2.0 // indirect
	github.com/mattn/go-ieproxy v0.0.0-20190610004146-91bb50d98149 // indirect
	github.com/mattn/go-runewidth v0.0.9 // indirect
	github.com/matttproud/golang_protobuf_extensions v1.0.1 // indirect
	github.com/naoina/go-stringutil v0.1.0 // indirect
	github.com/opentracing/opentracing-go v1.2.0 // indirect
	github.com/pkg/errors v0.9.1 // indirect
	github.com/pmezard/go-difflib v1.0.0 // indirect
	github.com/prometheus/client_golang v1.11.0 // indirect
	github.com/prometheus/client_model v0.2.0 // indirect
	github.com/prometheus/common v0.30.0 // indirect
	github.com/prometheus/procfs v0.7.3 // indirect
	github.com/sergi/go-diff v1.0.0 // indirect
	github.com/uber/jaeger-client-go v2.28.0+incompatible // indirect
	github.com/uber/jaeger-lib v2.4.1+incompatible // indirect
	github.com/xlab/treeprint v0.0.0-20180616005107-d6fb6747feb6 // indirect
	go.uber.org/atomic v1.6.0 // indirect
	go.uber.org/multierr v1.5.0 // indirect
	go.uber.org/zap v1.14.1 // indirect
	golang.org/x/text v0.3.7 // indirect
	golang.org/x/xerrors v0.0.0-20200804184101-5ec99f83aff1 // indirect
	google.golang.org/protobuf v1.27.1 // indirect
	gopkg.in/sourcemap.v1 v1.0.5 // indirect
	gopkg.in/yaml.v3 v3.0.0-20200313102051-9f266ea9e77c // indirect
	gotest.tools/v3 v3.1.0 // indirect
)
